\relax 
\providecommand\babel@aux[2]{}
\@nameuse{bbl@beforestart}
\emailauthor{zulkifli@ee.its.ac.id}{Z.~Hidayat\corref {cor1}}
\emailauthor{r.babuska@tudelft.nl}{R.~Babu\v {s}ka}
\emailauthor{a.a.nunezvicencio@tudelft.nl}{A.~N\'{u}\~{n}ez}
\emailauthor{b.deschutter@tudelft.nl}{B.~De~Schutter}
\Newlabel{cor1}{1}
\citation{takagi1985}
\citation{precup_survey_2011}
\citation{feng_survey_2006}
\citation{buckley_sugeno_1993}
\babel@aux{english}{}
\Newlabel{cor}{a}
\Newlabel{eeits}{b}
\Newlabel{rree}{c}
\Newlabel{dcsc}{d}
\@writefile{toc}{\contentsline {section}{\numberline {1}Introduction}{1}{}\protected@file@percent }
\newlabel{sec:intro}{{1}{1}}
\newlabel{sec:intro@cref}{{[section][1][]1}{[1][1][]1}}
\citation{almeida2010}
\citation{babuska1998b}
\citation{hathaway2001}
\citation{almeida2010}
\citation{zong_auxiliary_2021}
\citation{hansson_maximum_2012}
\citation{hathaway2001}
\citation{dempster1977}
\citation{gopaluni_particle_2008}
\citation{gopaluni_nonlinear_2010}
\citation{deng2012}
\citation{yang_robust_2019}
\citation{patel_subspace_2020}
\citation{sarkka_bayesian_2013}
\citation{tanaka_identification_1997}
\citation{salini_neural_2003}
\citation{qiao_robust_2008}
\@writefile{toc}{\contentsline {section}{\numberline {2}Related Works}{3}{}\protected@file@percent }
\newlabel{sec:relatedworks}{{2}{3}}
\newlabel{sec:relatedworks@cref}{{[section][2][]2}{[1][3][]3}}
\@writefile{toc}{\contentsline {section}{\numberline {3}Problem Formulation}{4}{}\protected@file@percent }
\newlabel{sec:problem}{{3}{4}}
\newlabel{sec:problem@cref}{{[section][3][]3}{[1][4][]4}}
\newlabel{eq:regvec}{{1}{4}}
\newlabel{eq:regvec@cref}{{[equation][1][]1}{[1][4][]4}}
\newlabel{eq:mPhicomplete}{{2}{4}}
\newlabel{eq:mPhicomplete@cref}{{[equation][2][]2}{[1][4][]4}}
\citation{kobayashi_probability_2012}
\newlabel{eq:modelfun}{{3}{5}}
\newlabel{eq:modelfun@cref}{{[equation][3][]3}{[1][4][]5}}
\newlabel{eq:optformsyside1}{{4}{5}}
\newlabel{eq:optformsyside1@cref}{{[equation][4][]4}{[1][5][]5}}
\newlabel{eq:optformsysidm1}{{5}{5}}
\newlabel{eq:optformsysidm1@cref}{{[equation][5][]5}{[1][5][]5}}
\newlabel{eq:mphi1miss}{{6}{5}}
\newlabel{eq:mphi1miss@cref}{{[equation][6][]6}{[1][5][]5}}
\citation{babuska1996b}
\citation{takagi1985}
\citation{zimmermann_fuzzy_2001}
\@writefile{toc}{\contentsline {section}{\numberline {4}TS fuzzy system identification: complete measurement case}{6}{}\protected@file@percent }
\newlabel{sec:tsid}{{4}{6}}
\newlabel{sec:tsid@cref}{{[section][4][]4}{[1][6][]6}}
\newlabel{eq:tsfuzzyout}{{8}{6}}
\newlabel{eq:tsfuzzyout@cref}{{[equation][8][]8}{[1][6][]6}}
\citation{babuska1998b}
\citation{gustafson1978}
\citation{hathaway2001}
\newlabel{eq:mPhiaug}{{9}{7}}
\newlabel{eq:mPhiaug@cref}{{[equation][9][]9}{[1][7][]7}}
\@writefile{toc}{\contentsline {section}{\numberline {5}TS fuzzy identification: incomplete data case}{7}{}\protected@file@percent }
\newlabel{sec:tsidincomplete}{{5}{7}}
\newlabel{sec:tsidincomplete@cref}{{[section][5][]5}{[1][7][]7}}
\citation{hathaway2001}
\citation{hathaway2001,timm_different_2004,li2010d}
\citation{almeida2010}
\newlabel{eq:mphi2miss}{{10}{8}}
\newlabel{eq:mphi2miss@cref}{{[equation][10][]10}{[1][8][]8}}
\@writefile{toc}{\contentsline {subsection}{\numberline {5.1}Clustering-based imputation}{8}{}\protected@file@percent }
\newlabel{subsec:clustimpute}{{5.1}{8}}
\newlabel{subsec:clustimpute@cref}{{[subsection][1][5]5.1}{[1][8][]8}}
\citation{hathaway2001}
\citation{bezdek_pattern_1981}
\newlabel{eq:mPhiaugmiss}{{11}{9}}
\newlabel{eq:mPhiaugmiss@cref}{{[equation][11][]11}{[1][8][]9}}
\newlabel{eq:frobeniusnorm}{{13}{9}}
\newlabel{eq:frobeniusnorm@cref}{{[equation][13][]13}{[1][9][]9}}
\@writefile{toc}{\contentsline {subsection}{\numberline {5.2}Iterative imputation}{9}{}\protected@file@percent }
\newlabel{subsec:iterimpute}{{5.2}{9}}
\newlabel{subsec:iterimpute@cref}{{[subsection][2][5]5.2}{[1][9][]9}}
\newlabel{eq:optformsysid2}{{14}{9}}
\newlabel{eq:optformsysid2@cref}{{[equation][14][]14}{[1][9][]9}}
\@writefile{loa}{\contentsline {algorithm}{\numberline {1}{\ignorespaces Fuzzy $c$-means clustering for incomplete system identification data\relax }}{10}{}\protected@file@percent }
\providecommand*\caption@xref[2]{\@setref\relax\@undefined{#1}}
\newlabel{alg:osfcmid}{{1}{10}}
\newlabel{alg:osfcmid@cref}{{[algorithm][1][]1}{[1][9][]10}}
\citation{goldberg_genetic_1989}
\citation{kennedy_swarm_2001}
\citation{johansen_empirical_1995}
\newlabel{eq:optformsysid3}{{15}{11}}
\newlabel{eq:optformsysid3@cref}{{[equation][15][]15}{[1][9][]11}}
\@writefile{toc}{\contentsline {section}{\numberline {6}Simulation Experiments}{11}{}\protected@file@percent }
\newlabel{sec:simexp}{{6}{11}}
\newlabel{sec:simexp@cref}{{[section][6][]6}{[1][11][]11}}
\@writefile{loa}{\contentsline {algorithm}{\numberline {2}{\ignorespaces Method 2: Iterative Imputation\relax }}{12}{}\protected@file@percent }
\newlabel{alg:method2}{{2}{12}}
\newlabel{alg:method2@cref}{{[algorithm][2][]2}{[1][11][]12}}
\@writefile{lot}{\contentsline {table}{\numberline {1}{\ignorespaces Consequent parameters of the toy example\relax }}{13}{}\protected@file@percent }
\newlabel{tab:toyconpars}{{1}{13}}
\newlabel{tab:toyconpars@cref}{{[table][1][]1}{[1][13][]13}}
\@writefile{toc}{\contentsline {subsection}{\numberline {6.1}Toy problem}{13}{}\protected@file@percent }
\newlabel{subsec:toy}{{6.1}{13}}
\newlabel{subsec:toy@cref}{{[subsection][1][6]6.1}{[1][13][]13}}
\@writefile{lof}{\contentsline {figure}{\numberline {1}{\ignorespaces Membership functions of the antecedent for the toy problem.\relax }}{14}{}\protected@file@percent }
\newlabel{fig:toymf}{{1}{14}}
\newlabel{fig:toymf@cref}{{[figure][1][]1}{[1][13][]14}}
\@writefile{lof}{\contentsline {figure}{\numberline {2}{\ignorespaces Input-output data set of the toy problem. The identification data are on the left of the vertical line, while the validation data are on the right.\relax }}{14}{}\protected@file@percent }
\newlabel{fig:toyiodata}{{2}{14}}
\newlabel{fig:toyiodata@cref}{{[figure][2][]2}{[1][13][]14}}
\@writefile{lot}{\contentsline {table}{\numberline {2}{\ignorespaces The mean and the standard deviation of the \ensuremath  {R^2}\ performance for the toy problem in percent.\relax }}{14}{}\protected@file@percent }
\newlabel{tab:toyvaf}{{2}{14}}
\newlabel{tab:toyvaf@cref}{{[table][2][]2}{[1][13][]14}}
\@writefile{lot}{\contentsline {table}{\numberline {3}{\ignorespaces The mean and standard deviation of the computation time for the toy problem in seconds\relax }}{14}{}\protected@file@percent }
\newlabel{tab:toytelapsed}{{3}{14}}
\newlabel{tab:toytelapsed@cref}{{[table][3][]3}{[1][13][]14}}
\citation{hall_modelling_1989}
\citation{johansen_regime_1994}
\citation{babuska1998b}
\newlabel{fig:toyvaf}{{3a}{15}}
\newlabel{fig:toyvaf@cref}{{[subfigure][1][3]3a}{[1][13][]15}}
\newlabel{sub@fig:toyvaf}{{a}{15}}
\newlabel{sub@fig:toyvaf@cref}{{[subfigure][1][3]3a}{[1][13][]15}}
\newlabel{fig:toytelapsed}{{3b}{15}}
\newlabel{fig:toytelapsed@cref}{{[subfigure][2][3]3b}{[1][13][]15}}
\newlabel{sub@fig:toytelapsed}{{b}{15}}
\newlabel{sub@fig:toytelapsed@cref}{{[subfigure][2][3]3b}{[1][13][]15}}
\@writefile{lof}{\contentsline {figure}{\numberline {3}{\ignorespaces The \ensuremath  {R^2}\ performance and the computation time for the toy example. The blue lines and markers are from clustering method, the red ones are from iterative method, and the green ones are from deletion method. In \Cref  {fig:toyvaf}, the markers (circles, x, and squares) indicate the mean of the \ensuremath  {R^2}\ and the upper and the lower horizontal bars are respectively the maximum and the minimum values.\relax }}{15}{}\protected@file@percent }
\newlabel{fig:toyres}{{3}{15}}
\newlabel{fig:toyres@cref}{{[figure][3][]3}{[1][13][]15}}
\@writefile{toc}{\contentsline {subsection}{\numberline {6.2}pH neutralization}{15}{}\protected@file@percent }
\newlabel{subsec:ph}{{6.2}{15}}
\newlabel{subsec:ph@cref}{{[subsection][2][6]6.2}{[1][15][]15}}
\@writefile{lof}{\contentsline {figure}{\numberline {4}{\ignorespaces Schematic diagram of the pH neutralization setup.\relax }}{16}{}\protected@file@percent }
\newlabel{fig:phsetup}{{4}{16}}
\newlabel{fig:phsetup@cref}{{[figure][4][]4}{[1][15][]16}}
\newlabel{fig:uidph}{{5a}{16}}
\newlabel{fig:uidph@cref}{{[subfigure][1][5]5a}{[1][15][]16}}
\newlabel{sub@fig:uidph}{{a}{16}}
\newlabel{sub@fig:uidph@cref}{{[subfigure][1][5]5a}{[1][15][]16}}
\newlabel{fig:yidph}{{5b}{16}}
\newlabel{fig:yidph@cref}{{[subfigure][2][5]5b}{[1][15][]16}}
\newlabel{sub@fig:yidph}{{b}{16}}
\newlabel{sub@fig:yidph@cref}{{[subfigure][2][5]5b}{[1][15][]16}}
\newlabel{fig:uvaph}{{5c}{16}}
\newlabel{fig:uvaph@cref}{{[subfigure][3][5]5c}{[1][15][]16}}
\newlabel{sub@fig:uvaph}{{c}{16}}
\newlabel{sub@fig:uvaph@cref}{{[subfigure][3][5]5c}{[1][15][]16}}
\newlabel{fig:yvaph}{{5d}{16}}
\newlabel{fig:yvaph@cref}{{[subfigure][4][5]5d}{[1][15][]16}}
\newlabel{sub@fig:yvaph}{{d}{16}}
\newlabel{sub@fig:yvaph@cref}{{[subfigure][4][5]5d}{[1][15][]16}}
\@writefile{lof}{\contentsline {figure}{\numberline {5}{\ignorespaces Input-output data sets for the pH neutralization example. (\ref {fig:uidph}) and (\ref {fig:yidph}) are the identification data and (\ref {fig:uvaph}) and (\ref {fig:yvaph}) are the validation data\relax }}{16}{}\protected@file@percent }
\newlabel{fig:phioplots}{{5}{16}}
\newlabel{fig:phioplots@cref}{{[figure][5][]5}{[1][15][]16}}
\@writefile{lot}{\contentsline {table}{\numberline {4}{\ignorespaces The mean and the standard deviation of the \ensuremath  {R^2}\ performance for the pH example in percent.\relax }}{17}{}\protected@file@percent }
\newlabel{tab:phvaf}{{4}{17}}
\newlabel{tab:phvaf@cref}{{[table][4][]4}{[1][17][]17}}
\newlabel{fig:phvafz}{{6a}{17}}
\newlabel{fig:phvafz@cref}{{[subfigure][1][6]6a}{[1][15][]17}}
\newlabel{sub@fig:phvafz}{{a}{17}}
\newlabel{sub@fig:phvafz@cref}{{[subfigure][1][6]6a}{[1][15][]17}}
\newlabel{fig:phvaf12}{{6b}{17}}
\newlabel{fig:phvaf12@cref}{{[subfigure][2][6]6b}{[1][15][]17}}
\newlabel{sub@fig:phvaf12}{{b}{17}}
\newlabel{sub@fig:phvaf12@cref}{{[subfigure][2][6]6b}{[1][15][]17}}
\newlabel{fig:phvaf3}{{6c}{17}}
\newlabel{fig:phvaf3@cref}{{[subfigure][3][6]6c}{[1][15][]17}}
\newlabel{sub@fig:phvaf3}{{c}{17}}
\newlabel{sub@fig:phvaf3@cref}{{[subfigure][3][6]6c}{[1][15][]17}}
\newlabel{fig:phvaf4}{{6d}{17}}
\newlabel{fig:phvaf4@cref}{{[subfigure][4][6]6d}{[1][15][]17}}
\newlabel{sub@fig:phvaf4}{{d}{17}}
\newlabel{sub@fig:phvaf4@cref}{{[subfigure][4][6]6d}{[1][15][]17}}
\newlabel{fig:phtelapsed}{{6e}{17}}
\newlabel{fig:phtelapsed@cref}{{[subfigure][5][6]6e}{[1][15][]17}}
\newlabel{sub@fig:phtelapsed}{{e}{17}}
\newlabel{sub@fig:phtelapsed@cref}{{[subfigure][5][6]6e}{[1][15][]17}}
\@writefile{lof}{\contentsline {figure}{\numberline {6}{\ignorespaces The \ensuremath  {R^2}\ performance and the computation time for the pH example. The blue lines and markers are from the clustering method, the red one are from the iterative method, and the green ones are from the deletion method. \relax }}{17}{}\protected@file@percent }
\newlabel{fig:phres}{{6}{17}}
\newlabel{fig:phres@cref}{{[figure][6][]6}{[1][15][]17}}
\citation{johansen_empirical_1995}
\citation{johansen_empirical_1995}
\citation{johansen_empirical_1995}
\citation{babuska1998b}
\@writefile{lot}{\contentsline {table}{\numberline {5}{\ignorespaces The mean and standard deviation of the computation time for the pH example in seconds.\relax }}{18}{}\protected@file@percent }
\newlabel{tab:phtelapsed}{{5}{18}}
\newlabel{tab:phtelapsed@cref}{{[table][5][]5}{[1][17][]18}}
\@writefile{lof}{\contentsline {figure}{\numberline {7}{\ignorespaces Schematic illustration of the heat transfer setup \citep  {johansen_empirical_1995}.\relax }}{18}{}\protected@file@percent }
\newlabel{fig:heatsetup}{{7}{18}}
\newlabel{fig:heatsetup@cref}{{[figure][7][]7}{[1][18][]18}}
\@writefile{toc}{\contentsline {subsection}{\numberline {6.3}Heat transfer}{18}{}\protected@file@percent }
\newlabel{subsec:heat}{{6.3}{18}}
\newlabel{subsec:heat@cref}{{[subsection][3][6]6.3}{[1][18][]18}}
\@writefile{lof}{\contentsline {figure}{\numberline {8}{\ignorespaces Input-output data set of the heat transfer example. The identification data are to the left of the vertical dotted line, while the validation data are to the right.\relax }}{19}{}\protected@file@percent }
\newlabel{fig:heatiodata}{{8}{19}}
\newlabel{fig:heatiodata@cref}{{[figure][8][]8}{[1][18][]19}}
\newlabel{fig:heatvaf}{{9a}{19}}
\newlabel{fig:heatvaf@cref}{{[subfigure][1][9]9a}{[1][19][]19}}
\newlabel{sub@fig:heatvaf}{{a}{19}}
\newlabel{sub@fig:heatvaf@cref}{{[subfigure][1][9]9a}{[1][19][]19}}
\newlabel{fig:heattelapsed}{{9b}{19}}
\newlabel{fig:heattelapsed@cref}{{[subfigure][2][9]9b}{[1][19][]19}}
\newlabel{sub@fig:heattelapsed}{{b}{19}}
\newlabel{sub@fig:heattelapsed@cref}{{[subfigure][2][9]9b}{[1][19][]19}}
\@writefile{lof}{\contentsline {figure}{\numberline {9}{\ignorespaces The \ensuremath  {R^2}\ performance and the computation time for the heat example. The blue lines and markers are from Method 1, the red one are from Method 2, and the green ones are from Method 3.\relax }}{19}{}\protected@file@percent }
\newlabel{fig:heatres}{{9}{19}}
\newlabel{fig:heatres@cref}{{[figure][9][]9}{[1][19][]19}}
\@writefile{lot}{\contentsline {table}{\numberline {6}{\ignorespaces The mean and the standard deviation of the $R^2$ performance for the heat example in percent\relax }}{20}{}\protected@file@percent }
\newlabel{tab:heatvaf}{{6}{20}}
\newlabel{tab:heatvaf@cref}{{[table][6][]6}{[1][19][]20}}
\@writefile{lot}{\contentsline {table}{\numberline {7}{\ignorespaces The mean and standard deviation of the computation time for the heat example in seconds\relax }}{20}{}\protected@file@percent }
\newlabel{tab:heattelapsed}{{7}{20}}
\newlabel{tab:heattelapsed@cref}{{[table][7][]7}{[1][19][]20}}
\@writefile{toc}{\contentsline {subsection}{\numberline {6.4}Discussion of the results}{20}{}\protected@file@percent }
\newlabel{subsec:discussion}{{6.4}{20}}
\newlabel{subsec:discussion@cref}{{[subsection][4][6]6.4}{[1][19][]20}}
\citation{hoppner_contribution_2003}
\@writefile{lot}{\contentsline {table}{\numberline {8}{\ignorespaces The \ensuremath  {R^2}\ performance and computation time with complete data for 100 different clustering initialization.\relax }}{21}{}\protected@file@percent }
\newlabel{tab:conc}{{8}{21}}
\newlabel{tab:conc@cref}{{[table][8][]8}{[1][21][]21}}
\citation{bezdek_covergence_2003}
\bibstyle{elsarticle-harv}
\bibdata{reference}
\@writefile{toc}{\contentsline {section}{\numberline {7}Conclusions}{22}{}\protected@file@percent }
\newlabel{sec:conclusion}{{7}{22}}
\newlabel{sec:conclusion@cref}{{[section][7][]7}{[1][22][]22}}
\bibcite{almeida2010}{{1}{2010}{{Almeida et~al.}}{{Almeida, Kaymak and Sousa}}}
\bibcite{babuska1998b}{{2}{1998}{{Babu\v {s}ka}}{{}}}
\bibcite{babuska1996b}{{3}{1996}{{Babu\v {s}ka et~al.}}{{Babu\v {s}ka, te~Braake, van Can, Krijgsman and Verbruggen}}}
\bibcite{bezdek_pattern_1981}{{4}{1981}{{Bezdek}}{{}}}
\bibcite{bezdek_covergence_2003}{{5}{2003}{{Bezdek and Hathaway}}{{}}}
\bibcite{buckley_sugeno_1993}{{6}{1993}{{Buckley}}{{}}}
\bibcite{dempster1977}{{7}{1977}{{Dempster et~al.}}{{Dempster, Laird and Rubin}}}
\bibcite{deng2012}{{8}{2012}{{Deng and Huang}}{{}}}
\bibcite{feng_survey_2006}{{9}{2006}{{Feng}}{{}}}
\bibcite{goldberg_genetic_1989}{{10}{1989}{{Goldberg}}{{}}}
\bibcite{gopaluni_particle_2008}{{11}{2008}{{Gopaluni}}{{}}}
\bibcite{gopaluni_nonlinear_2010}{{12}{2010}{{Gopaluni}}{{}}}
\bibcite{gustafson1978}{{13}{1978}{{Gustafson and Kessel}}{{}}}
\bibcite{hall_modelling_1989}{{14}{1989}{{Hall and Seborg}}{{}}}
\bibcite{hansson_maximum_2012}{{15}{2012}{{Hansson and Wallin}}{{}}}
\bibcite{hathaway2001}{{16}{2001}{{Hathaway and Bezdek}}{{}}}
\bibcite{hoppner_contribution_2003}{{17}{2003}{{H{\"o}ppner and Klawonn}}{{}}}
\bibcite{johansen_regime_1994}{{18}{1994}{{Johansen}}{{}}}
\bibcite{johansen_empirical_1995}{{19}{1995}{{Johansen and Foss}}{{}}}
\bibcite{kennedy_swarm_2001}{{20}{2001}{{Kennedy et~al.}}{{Kennedy, Kennedy, Eberhart and Shi}}}
\bibcite{kobayashi_probability_2012}{{21}{2012}{{Kobayashi et~al.}}{{Kobayashi, Mark and Turin}}}
\bibcite{li2010d}{{22}{2010}{{Li et~al.}}{{Li, Gu and Zhang}}}
\bibcite{patel_subspace_2020}{{23}{2020}{{Patel et~al.}}{{Patel, Mhaskar and Corbett}}}
\bibcite{precup_survey_2011}{{24}{2011}{{Precup and Hellendoorn}}{{}}}
\bibcite{qiao_robust_2008}{{25}{2008}{{Qiao et~al.}}{{Qiao, Gao, Harley and Venayagamoorthy}}}
\bibcite{salini_neural_2003}{{26}{2003}{{Salini et~al.}}{{Salini, Minerva, Zirilli, Tiano and Pizzocchero}}}
\bibcite{sarkka_bayesian_2013}{{27}{2013}{{S{\"a}rkk{\"a}}}{{}}}
\bibcite{takagi1985}{{28}{1985}{{Takagi and Sugeno}}{{}}}
\bibcite{tanaka_identification_1997}{{29}{1997}{{Tanaka and Dai}}{{}}}
\bibcite{timm_different_2004}{{30}{2004}{{Timm et~al.}}{{Timm, D\"oring and Kruse}}}
\bibcite{yang_robust_2019}{{31}{2019}{{Yang et~al.}}{{Yang, Liu and Yin}}}
\bibcite{zimmermann_fuzzy_2001}{{32}{2011}{{Zimmermann}}{{}}}
\bibcite{zong_auxiliary_2021}{{33}{2021}{{Zong et~al.}}{{Zong, Li and Lu}}}
\gdef \@abspage@last{24}
